<?xml version="1.0" encoding="ISO-8859-1" standalone="no"?>
<!DOCTYPE svg PUBLIC "-//W3C//DTD SVG 20010904//EN"
    "http://www.w3.org/TR/2001/REC-SVG-20010904/DTD/svg10.dtd">

<svg width="50px" height="300px" viewBox="0 0 50 300"
     xmlns="http://www.w3.org/2000/svg" version="1.1">
  <desc>Example radgrad01 - fill a rectangle by referencing a 
           radial gradient paint server</desc>


<rect x="0" y="0" width="5" height="300" stroke="none"
  fill="#336633"
/>

<rect x="5" y="0" width="2" height="300" stroke="none"
  fill="#99cc99"
/>

<rect x="7" y="0" width="3" height="300" stroke="none"
  fill="#669966"
/>

<rect x="10" y="0" width="4" height="300" stroke="none"
  fill="#ddffdd"
/>

<rect x="14" y="0" width="2" height="300" stroke="none"
  fill="#336633"
/>

<rect x="16" y="0" width="6" height="300" stroke="none"
  fill="#99cc99"
/>

<rect x="22" y="0" width="3" height="300" stroke="none"
  fill="#ddffdd"
/>

<rect x="25" y="0" width="25" height="300" stroke="none"
  fill="white"
/>

</svg>
